<?xml version="1.0" encoding="UTF-8" standalone="no"?>
<svg
   width="63.236763mm"
   height="14.464785mm"
   viewBox="0 0 63.236763 14.464785"
   version="1.1"
   id="svg8"
   sodipodi:docname="donate-icon.svg"
   inkscape:version="1.2.1 (9c6d41e410, 2022-07-14)"
   xml:space="preserve"
   xmlns:inkscape="http://www.inkscape.org/namespaces/inkscape"
   xmlns:sodipodi="http://sodipodi.sourceforge.net/DTD/sodipodi-0.dtd"
   xmlns="http://www.w3.org/2000/svg"
   xmlns:svg="http://www.w3.org/2000/svg"
   xmlns:rdf="http://www.w3.org/1999/02/22-rdf-syntax-ns#"
   xmlns:cc="http://creativecommons.org/ns#"
   xmlns:dc="http://purl.org/dc/elements/1.1/"><defs
     id="defs2"><filter
       inkscape:collect="always"
       style="color-interpolation-filters:sRGB"
       id="filter1311"
       x="-0.024535248"
       width="1.0490705"
       y="-0.12629425"
       height="1.2525885"><feGaussianBlur
         inkscape:collect="always"
         stdDeviation="0.56360593"
         id="feGaussianBlur1313" /></filter></defs><sodipodi:namedview
     id="base"
     pagecolor="#ffffff"
     bordercolor="#666666"
     borderopacity="1.0"
     inkscape:pageopacity="0.0"
     inkscape:pageshadow="2"
     inkscape:zoom="2.8"
     inkscape:cx="67.142857"
     inkscape:cy="9.6428571"
     inkscape:document-units="mm"
     inkscape:current-layer="g52"
     inkscape:document-rotation="0"
     showgrid="false"
     inkscape:window-width="1920"
     inkscape:window-height="995"
     inkscape:window-x="0"
     inkscape:window-y="0"
     inkscape:window-maximized="1"
     fit-margin-top="0"
     fit-margin-left="0"
     fit-margin-right="0"
     fit-margin-bottom="0"
     showguides="true"
     inkscape:guide-bbox="true"
     inkscape:showpageshadow="2"
     inkscape:pagecheckerboard="0"
     inkscape:deskcolor="#d1d1d1" /><metadata
     id="metadata5"><rdf:RDF><cc:Work
         rdf:about=""><dc:format>image/svg+xml</dc:format><dc:type
           rdf:resource="http://purl.org/dc/dcmitype/StillImage" /><dc:title /></cc:Work></rdf:RDF></metadata><g
     inkscape:label="Layer 1"
     inkscape:groupmode="layer"
     id="layer1"
     transform="translate(-63.120376,-66.462379)"><rect
       style="fill:#000000;fill-opacity:1;stroke:#da9500;stroke-width:0.265;stroke-miterlimit:4;stroke-dasharray:none;stroke-opacity:0.517647;filter:url(#filter1311)"
       id="rect853-5"
       width="60.531452"
       height="11.759476"
       x="64.47303"
       y="67.815033"
       ry="1.4709694" /><rect
       style="fill:#555555;fill-opacity:1;stroke:#da9500;stroke-width:0.264583;stroke-opacity:0.517647"
       id="rect853"
       width="60.531452"
       height="11.759476"
       x="64.979797"
       y="67.010094"
       ry="1.4709693" /><g
       id="g52"
       transform="matrix(0.50846677,0,0,0.50846677,66.374747,67.933094)"><g
         shape-rendering="crispEdges"
         id="g8"><rect
           width="86"
           height="20"
           fill="#555555"
           id="rect4"
           x="0"
           y="0" /></g><g
         id="g190"
         transform="translate(7.9240953)"><g
           fill="#ffffff"
           text-anchor="middle"
           font-family="Verdana, Geneva, 'DejaVu Sans', sans-serif"
           text-rendering="geometricPrecision"
           font-size="110px"
           id="g16"><g
             id="g3391"
             transform="translate(2.0416011,-0.18235412)"><text
               x="525"
               y="140"
               transform="matrix(0.1,0,0,0.1,2.1628417,2.2732045)"
               fill="#ffffff"
               textLength="590"
               id="text12"
               lengthAdjust="spacing">GNU/Linux</text><text
               xml:space="preserve"
               style="font-size:4.16284px;fill:#999999;fill-opacity:1;stroke-width:0.520355"
               x="36.2817"
               y="5.7305789"
               id="text3336"><tspan
                 sodipodi:role="line"
                 id="tspan3334"
                 style="font-size:4.16284px;stroke-width:0.520355"
                 x="36.2817"
                 y="5.7305789">powerd by</tspan></text></g></g><g
           id="g153"
           transform="matrix(0.78051493,0,0,0.78051493,8.9933546,0.38206474)"
           style="fill:#ffcc00;fill-opacity:1"><path
             d="m 12.642,8.084 c -0.364,0.189 -0.79,0.42 -1.242,0.42 -0.452,0 -0.81,-0.209 -1.066,-0.413 C 10.204,7.99 10.1,7.889 10.021,7.815 9.884,7.707 9.901,7.556 9.957,7.561 c 0.094,0.012 0.108,0.136 0.168,0.191 0.08,0.075 0.18,0.172 0.302,0.269 0.243,0.192 0.567,0.38 0.973,0.38 0.406,0 0.878,-0.238 1.167,-0.4 0.163,-0.092 0.371,-0.256 0.541,-0.381 0.13,-0.095 0.125,-0.21 0.232,-0.198 0.107,0.013 0.028,0.127 -0.122,0.258 a 3.404,3.404 0 0 1 -0.576,0.404 z"
             id="path138"
             style="fill:#ffcc00;fill-opacity:1" /><path
             d="M 19.649,17.77 C 19.507,17.61 19.44,17.314 19.368,16.999 19.296,16.684 19.215,16.345 18.957,16.125 L 18.955,16.124 A 1.054,1.054 0 0 0 18.638,15.932 C 18.997,14.867 18.857,13.806 18.493,12.848 18.049,11.671 17.271,10.646 16.678,9.945 16.014,9.107 15.365,8.312 15.377,7.137 15.398,5.344 15.574,2.019 12.419,2.015 A 4.66,4.66 0 0 0 12.018,2.032 C 8.492,2.315 9.428,6.04 9.375,7.287 9.311,8.199 9.126,8.918 8.498,9.81 7.762,10.686 6.724,12.105 6.232,13.581 6,14.278 5.89,14.988 5.991,15.661 A 1.9,1.9 0 0 0 5.9,15.75 C 5.684,15.981 5.524,16.261 5.345,16.449 5.179,16.616 4.942,16.678 4.681,16.772 4.42,16.866 4.134,17.003 3.96,17.337 l -10e-4,0.002 a 1,1 0 0 0 -0.108,0.484 c 0,0.154 0.023,0.311 0.046,0.461 0.048,0.313 0.097,0.609 0.032,0.81 -0.206,0.564 -0.232,0.954 -0.087,1.237 0.146,0.284 0.444,0.409 0.783,0.479 0.676,0.141 1.592,0.106 2.314,0.489 L 7.001,21.182 6.94,21.3 c 0.773,0.404 1.557,0.547 2.182,0.405 0.454,-0.104 0.821,-0.374 1.011,-0.789 0.489,-0.002 1.025,-0.209 1.885,-0.256 0.583,-0.047 1.312,0.207 2.149,0.16 a 1.119,1.119 0 0 0 0.099,0.264 c 0.324,0.649 0.928,0.946 1.571,0.896 0.643,-0.05 1.329,-0.43 1.883,-1.089 l -0.102,-0.085 0.102,0.084 c 0.527,-0.64 1.403,-0.905 1.984,-1.255 0.29,-0.175 0.525,-0.395 0.544,-0.713 0.018,-0.318 -0.169,-0.675 -0.599,-1.152 z M 11.859,6.062 C 11.856,5.828 11.895,5.627 11.985,5.423 12.075,5.219 12.186,5.072 12.343,4.953 12.5,4.834 12.655,4.779 12.837,4.777 h 0.009 c 0.179,0 0.332,0.053 0.489,0.167 0.159,0.116 0.274,0.261 0.366,0.463 a 1.493,1.493 0 0 1 0.141,0.636 c 0.002,0.235 -0.038,0.435 -0.127,0.639 a 1.23,1.23 0 0 1 -0.18,0.299 L 13.461,6.948 C 13.372,6.91 13.294,6.879 13.224,6.852 13.154,6.825 13.1,6.808 13.043,6.788 13.084,6.739 13.165,6.68 13.194,6.607 A 0.943,0.943 0 0 0 13.266,6.26 L 13.268,6.244 A 0.953,0.953 0 0 0 13.218,5.907 C 13.18,5.794 13.132,5.712 13.063,5.644 12.994,5.576 12.924,5.545 12.84,5.543 h -0.011 a 0.324,0.324 0 0 0 -0.217,0.086 0.618,0.618 0 0 0 -0.174,0.25 0.944,0.944 0 0 0 -0.072,0.348 l -10e-4,0.015 a 0.992,0.992 0 0 0 0.014,0.2 2.463,2.463 0 0 0 -0.507,-0.171 1.681,1.681 0 0 1 -0.014,-0.19 V 6.062 Z M 9.715,6.114 C 9.703,5.912 9.724,5.738 9.779,5.558 9.834,5.378 9.909,5.247 10.017,5.14 a 0.516,0.516 0 0 1 0.349,-0.168 h 0.03 c 0.118,0 0.225,0.04 0.335,0.127 a 0.968,0.968 0 0 1 0.284,0.389 c 0.076,0.171 0.116,0.343 0.127,0.545 V 6.035 A 1.51,1.51 0 0 1 11.14,6.278 c -0.023,0.006 -0.046,0.014 -0.068,0.021 -0.128,0.044 -0.23,0.093 -0.328,0.158 A 0.845,0.845 0 0 0 10.747,6.243 V 6.231 A 0.95,0.95 0 0 0 10.679,5.957 0.523,0.523 0 0 0 10.541,5.754 C 10.489,5.71 10.441,5.689 10.388,5.69 l -0.017,10e-4 c -0.061,0.005 -0.11,0.034 -0.157,0.092 a 0.536,0.536 0 0 0 -0.101,0.223 0.912,0.912 0 0 0 -0.019,0.293 l 0.001,0.012 c 0.01,0.103 0.031,0.189 0.067,0.275 A 0.528,0.528 0 0 0 10.328,6.81 C 10.269,6.855 10.23,6.888 10.182,6.923 l -0.11,0.081 A 0.995,0.995 0 0 1 9.843,6.662 1.528,1.528 0 0 1 9.715,6.116 Z M 9.87,7.342 c 0.187,-0.14 0.315,-0.234 0.402,-0.298 0.086,-0.063 0.121,-0.086 0.148,-0.112 h 10e-4 c 0.14,-0.132 0.362,-0.374 0.699,-0.49 0.115,-0.04 0.245,-0.065 0.39,-0.066 0.275,-0.001 0.608,0.089 1.01,0.348 0.247,0.16 0.439,0.174 0.882,0.363 h 0.001 c 0.213,0.087 0.338,0.202 0.399,0.321 0.061,0.12 0.063,0.25 0.012,0.387 C 13.711,8.068 13.385,8.357 12.927,8.5 H 12.926 C 12.702,8.572 12.508,8.733 12.279,8.864 A 1.449,1.449 0 0 1 11.437,9.081 1.105,1.105 0 0 1 11.063,8.998 1.202,1.202 0 0 1 10.793,8.831 C 10.632,8.7 10.49,8.536 10.283,8.415 H 10.281 C 9.948,8.225 9.766,8.007 9.708,7.817 9.651,7.628 9.705,7.466 9.87,7.342 Z m 0.131,13.018 v 0.001 c -0.047,0.623 -0.398,0.961 -0.938,1.085 -0.539,0.123 -1.27,0 -1.999,-0.381 H 7.063 C 6.255,20.638 5.295,20.68 4.679,20.551 4.371,20.487 4.17,20.39 4.077,20.21 3.985,20.03 3.983,19.716 4.179,19.182 L 4.18,19.18 4.181,19.178 C 4.278,18.879 4.206,18.552 4.16,18.244 4.113,17.937 4.09,17.658 4.194,17.463 L 4.195,17.461 C 4.33,17.202 4.527,17.109 4.771,17.022 5.016,16.934 5.305,16.865 5.535,16.636 l 10e-4,-10e-4 0.001,-0.001 c 0.212,-0.223 0.371,-0.503 0.557,-0.702 0.157,-0.167 0.314,-0.279 0.551,-0.28 h 0.009 c 0.041,0 0.085,0.003 0.132,0.011 0.314,0.047 0.588,0.268 0.853,0.625 l 0.762,1.389 h 10e-4 c 0.202,0.423 0.631,0.89 0.994,1.365 0.362,0.475 0.644,0.952 0.607,1.317 z M 9.938,19.35 A 6.721,6.721 0 0 0 9.605,18.881 13.467,13.467 0 0 0 9.376,18.588 c 0.151,0 0.28,-0.024 0.384,-0.072 a 0.486,0.486 0 0 0 0.266,-0.274 C 10.116,18 10.026,17.659 9.738,17.269 9.448,16.879 8.96,16.439 8.244,16 7.717,15.672 7.423,15.271 7.285,14.835 7.147,14.399 7.166,13.928 7.272,13.462 7.476,12.568 8.001,11.7 8.335,11.154 c 0.09,-0.066 0.032,0.123 -0.339,0.811 -0.332,0.629 -0.953,2.081 -0.103,3.214 a 6.722,6.722 0 0 1 0.538,-2.398 c 0.472,-1.067 1.456,-2.919 1.534,-4.395 0.041,0.029 0.18,0.123 0.241,0.158 0.182,0.106 0.316,0.262 0.492,0.403 0.177,0.142 0.396,0.264 0.729,0.283 l 0.093,0.003 c 0.343,0 0.61,-0.112 0.833,-0.239 0.242,-0.138 0.436,-0.292 0.618,-0.351 h 10e-4 c 0.387,-0.122 0.694,-0.335 0.869,-0.585 0.302,1.186 1.001,2.897 1.45,3.733 0.239,0.443 0.715,1.385 0.92,2.52 0.13,-0.004 0.273,0.015 0.427,0.054 0.537,-1.393 -0.455,-2.892 -0.909,-3.31 -0.184,-0.178 -0.192,-0.258 -0.102,-0.254 0.492,0.436 1.139,1.311 1.374,2.3 0.107,0.451 0.13,0.925 0.016,1.393 0.056,0.023 0.113,0.048 0.171,0.076 0.862,0.42 1.181,0.785 1.027,1.283 -0.05,-0.002 -0.1,-10e-4 -0.148,0 h -0.014 c 0.125,-0.395 -0.151,-0.687 -0.889,-1.02 -0.764,-0.336 -1.373,-0.303 -1.476,0.379 a 1.302,1.302 0 0 0 -0.017,0.109 c -0.057,0.02 -0.114,0.045 -0.172,0.076 -0.358,0.197 -0.555,0.553 -0.664,0.99 -0.108,0.437 -0.14,0.964 -0.17,1.558 -0.019,0.298 -0.141,0.702 -0.266,1.129 -1.249,0.897 -2.986,1.283 -4.461,0.276 z m 9.628,0.057 c -0.524,0.317 -1.456,0.593 -2.05,1.313 -0.517,0.615 -1.146,0.952 -1.7,0.996 -0.555,0.044 -1.033,-0.186 -1.315,-0.752 V 20.963 L 14.5,20.96 c -0.175,-0.333 -0.102,-0.858 0.045,-1.412 0.147,-0.554 0.359,-1.123 0.388,-1.585 v -0.001 c 0.03,-0.592 0.063,-1.11 0.163,-1.509 0.1,-0.399 0.256,-0.669 0.533,-0.821 l 0.039,-0.02 c 0.031,0.513 0.285,1.036 0.734,1.149 0.491,0.129 1.199,-0.292 1.498,-0.636 0.06,-0.002 0.118,-0.006 0.175,-0.007 0.262,-0.006 0.481,0.009 0.707,0.205 v 0.001 h 0.001 c 0.173,0.146 0.255,0.423 0.326,0.733 0.071,0.31 0.128,0.647 0.342,0.888 h 0.001 c 0.41,0.456 0.542,0.764 0.531,0.96 -0.011,0.198 -0.153,0.344 -0.417,0.502 z"
             id="path140"
             style="fill:#ffcc00;fill-opacity:1" /><path
             d="m 11.738,6.762 c 0.015,0.048 0.093,0.04 0.138,0.063 0.04,0.02 0.071,0.065 0.116,0.066 0.042,0.001 0.107,-0.015 0.113,-0.057 C 12.113,6.778 12.032,6.743 11.979,6.723 11.912,6.697 11.826,6.684 11.763,6.719 11.749,6.727 11.733,6.746 11.738,6.762 Z m -0.46,0 C 11.262,6.81 11.184,6.802 11.139,6.825 11.1,6.845 11.068,6.89 11.024,6.891 10.982,6.892 10.916,6.876 10.91,6.834 10.903,6.778 10.984,6.743 11.036,6.723 c 0.067,-0.026 0.153,-0.039 0.217,-0.004 0.015,0.008 0.03,0.027 0.025,0.043 z"
             id="path142"
             style="fill:#ffcc00;fill-opacity:1" /></g></g></g></g></svg>
